…
group_by(db, position_title) %>% 
  count(gender) -> tmp2

group_by(db, position_title) %>% 
  count(gender) %>% 
  ungroup() %>% 
  mutate(full_desc=ifelse(gender=="F", "Female", "Male")) %>% 
  collect() %>% 
  select(Title=position_title, Gender=full_desc, Count=n)
## # A tibble: 30 x 3
##    Title                  Gender Count
##  * <chr>                  <chr>  <int>
##  1 President              Female     1
##  2 VP Country Manager     Male       3
##  3 VP Country Manager     Female     3
##  4 VP Information Systems Female     1
##  5 VP Human Resources     Female     1
##  6 Store Manager          Female    13
##  7 VP Finance             Male       1
##  8 Store Manager          Male      11
##  9 HQ Marketing           Female     2
## 10 HQ Information Systems Female     4
## # ... with 20 more rows
…
mutate(db, position_title=tolower(position_title)) %>%
  mutate(salary=as.numeric(salary)) %>% 
  mutate(gender=ifelse(gender=="F", "Female", "Male")) %>%
  mutate(marital_status=ifelse(marital_status=="S", "Single", "Married")) %>% 
  group_by(supervisor_id) %>% 
  summarise(underlings_count=n()) %>% 
  collect()
## # A tibble: 112 x 2
##    supervisor_id underlings_count
##  *         <int>            <int>
##  1             0                1
##  2             1                7
##  3             5                9
##  4             4                2
##  5             2                3
##  6            20                2
##  7            21                4
##  8            22                7
##  9             6                4
## 10            36                2
## # ... with 102 more rows
```
…
##   birth_date = col_date(format = ""),
##   supervisor_id = col_integer(),
##   last_name = col_character(),
##   position_title = col_character(),
##   hire_date = col_datetime(format = ""),
##   management_role = col_character(),
##   salary = col_double(),
##   marital_status = col_character(),
##   full_name = col_character(),
##   employee_id = col_integer(),
##   education_level = col_character(),
##   first_name = col_character(),
##   position_id = col_integer()
## )
## # A tibble: 100 x 16
##    store_id gender department_id birth_date supervisor_id last_name position_title  hire_date           management_role
##  *    <int> <chr>          <int> <date>             <int> <chr>     <chr>           <dttm>              <chr>          
##  1        0 F                  1 1961-08-26             0 Nowmer    President       1994-12-01 00:00:00 Senior Managem…
##  2        0 M                  1 1915-07-03             1 Whelply   VP Country Man… 1994-12-01 00:00:00 Senior Managem…
##  3        0 M                  1 1969-06-20             1 Spence    VP Country Man… 1998-01-01 00:00:00 Senior Managem…
##  4        0 F                  1 1951-05-10             1 Gutierrez VP Country Man… 1998-01-01 00:00:00 Senior Managem…
##  5        0 F                  2 1942-10-08             1 Damstra   VP Information… 1994-12-01 00:00:00 Senior Managem…
##  6        0 F                  3 1949-03-27             1 Kanagaki  VP Human Resou… 1994-12-01 00:00:00 Senior Managem…
##  7        9 F                 11 1922-08-10             5 Brunner   Store Manager   1998-01-01 00:00:00 Store Manageme…
##  8       21 F                 11 1979-06-23             5 Blumberg  Store Manager   1998-01-01 00:00:00 Store Manageme…
##  9        0 M                  5 1949-08-26             1 Stanz     VP Finance      1994-12-01 00:00:00 Senior Managem…
## 10        1 M                 11 1967-06-20             5 Murraiin  Store Manager   1998-01-01 00:00:00 Store Manageme…
## # ... with 90 more rows, and 7 more variables: salary <dbl>, marital_status <chr>, full_name <chr>, employee_id <int>,
## #   education_level <chr>, first_name <chr>, position_id <int>

drill_query(dc, "SELECT COUNT(gender) AS gender FROM cp.`employee.json` GROUP BY gender")
## Parsed with column specification:
## cols(
##   gender = col_integer()
## )
## # A tibble: 2 x 1
##   gender
## *  <int>
## 1    601
## 2    554

drill_options(dc)
## # A tibble: 138 x 5
##    name                                              value    accessibleScopes kind    optionScope
##  * <chr>                                             <chr>    <chr>            <chr>   <chr>      
##  1 debug.validate_iterators                          FALSE    ALL              BOOLEAN BOOT       
##  2 debug.validate_vectors                            FALSE    ALL              BOOLEAN BOOT       
##  3 drill.exec.functions.cast_empty_string_to_null    FALSE    ALL              BOOLEAN BOOT       
##  4 drill.exec.hashagg.fallback.enabled               FALSE    ALL              BOOLEAN BOOT       
##  5 drill.exec.memory.operator.output_batch_size      16777216 SYSTEM           LONG    BOOT       
##  6 drill.exec.storage.file.partition.column.label    dir      ALL              STRING  BOOT       
##  7 drill.exec.storage.implicit.filename.column.label filename ALL              STRING  BOOT       
##  8 drill.exec.storage.implicit.filepath.column.label filepath ALL              STRING  BOOT       
##  9 drill.exec.storage.implicit.fqn.column.label      fqn      ALL              STRING  BOOT       
## 10 drill.exec.storage.implicit.suffix.column.label   suffix   ALL              STRING  BOOT       
## # ... with 128 more rows
…
