Tools to Transform and Query Data with the 'Apache Drill' 'REST API' and 'JDBC' Interfaces, Plus 'dplyr' and 'DBI' Interfaces • sergeant
…
group_by(db, position_title) %>% 
  count(gender) -> tmp2

group_by(db, position_title) %>% 
  count(gender) %>% 
  ungroup() %>% 
  mutate(full_desc=ifelse(gender=="F", "Female", "Male")) %>% 
  collect() %>% 
  select(Title=position_title, Gender=full_desc, Count=n)
#> # A tibble: 30 × 3
#>                     Title Gender Count
#> *                   <chr>  <chr> <int>
#> 1               President Female     1
#> 2      VP Country Manager   Male     3
#> 3      VP Country Manager Female     3
#> 4  VP Information Systems Female     1
#> 5      VP Human Resources Female     1
#> 6           Store Manager Female    13
#> 7              VP Finance   Male     1
#> 8           Store Manager   Male    11
#> 9            HQ Marketing Female     2
#> 10 HQ Information Systems Female     4
#> # ... with 20 more rows
…
mutate(db, position_title=tolower(position_title)) %>%
  mutate(salary=as.numeric(salary)) %>% 
  mutate(gender=ifelse(gender=="F", "Female", "Male")) %>%
  mutate(marital_status=ifelse(marital_status=="S", "Single", "Married")) %>% 
  group_by(supervisor_id) %>% 
  summarise(underlings_count=n()) %>% 
  collect()
#> # A tibble: 112 × 2
#>    supervisor_id underlings_count
#> *          <int>            <int>
#> 1              0                1
#> 2              1                7
#> 3              5                9
#> 4              4                2
#> 5              2                3
#> 6             20                2
#> 7             21                4
#> 8             22                7
#> 9              6                4
#> 10            36                2
#> # ... with 102 more rows
…
Downloading: 63 kB
#> Parsed with column specification:
#> cols(
#>   .default = col_character(),
#>   store_id = col_integer(),
#>   department_id = col_integer(),
#>   birth_date = col_date(format = ""),
#>   supervisor_id = col_integer(),
#>   hire_date = col_datetime(format = ""),
#>   salary = col_double(),
#>   employee_id = col_integer(),
#>   position_id = col_integer()
#> )
#> See spec(...) for full column specifications.
#> # A tibble: 100 × 20
#>    store_id            fqn gender department_id birth_date supervisor_id last_name         position_title  hire_date
#> *     <int>          <chr>  <chr>         <int>     <date>         <int>     <chr>                  <chr>     <dttm>
#> 1         0 /employee.json      F             1 1961-08-26             0    Nowmer              President 1994-12-01
#> 2         0 /employee.json      M             1 1915-07-03             1   Whelply     VP Country Manager 1994-12-01
#> 3         0 /employee.json      M             1 1969-06-20             1    Spence     VP Country Manager 1998-01-01
#> 4         0 /employee.json      F             1 1951-05-10             1 Gutierrez     VP Country Manager 1998-01-01
#> 5         0 /employee.json      F             2 1942-10-08             1   Damstra VP Information Systems 1994-12-01
#> 6         0 /employee.json      F             3 1949-03-27             1  Kanagaki     VP Human Resources 1994-12-01
#> 7         9 /employee.json      F            11 1922-08-10             5   Brunner          Store Manager 1998-01-01
#> 8        21 /employee.json      F            11 1979-06-23             5  Blumberg          Store Manager 1998-01-01
#> 9         0 /employee.json      M             5 1949-08-26             1     Stanz             VP Finance 1994-12-01
#> 10        1 /employee.json      M            11 1967-06-20             5  Murraiin          Store Manager 1998-01-01
#> # ... with 90 more rows, and 11 more variables: management_role <chr>, suffix <chr>, salary <dbl>,
#> #   marital_status <chr>, filename <chr>, full_name <chr>, filepath <chr>, employee_id <int>, education_level <chr>,
#> #   first_name <chr>, position_id <int>
…
drill_options(dc)
#> # A tibble: 105 × 4
#>                                              name value   type    kind
#> *                                           <chr> <chr>  <chr>   <chr>
#> 1                  planner.enable_hash_single_key  TRUE SYSTEM BOOLEAN
#> 2              planner.enable_limit0_optimization FALSE SYSTEM BOOLEAN
#> 3               store.json.read_numbers_as_double FALSE SYSTEM BOOLEAN
#> 4                 planner.enable_constant_folding  TRUE SYSTEM BOOLEAN
#> 5                       store.json.extended_types FALSE SYSTEM BOOLEAN
#> 6    planner.memory.non_blocking_operators_memory    64 SYSTEM    LONG
#> 7                   planner.enable_multiphase_agg  TRUE SYSTEM BOOLEAN
#> 8  planner.filter.max_selectivity_estimate_factor     1 SYSTEM  DOUBLE
#> 9                     planner.enable_mux_exchange  TRUE SYSTEM BOOLEAN
#> 10                   store.parquet.use_new_reader FALSE SYSTEM BOOLEAN
#> # ... with 95 more rows
…
 JDBC

library(RJDBC)

con <- drill_jdbc("drill.local:2181", "jla") 
#> Using [jdbc:drill:zk=drill.local:2181/drill/jla]...
# or the following if running drill-embedded
# con <- drill_jdbc("localhost:31010", use_zk=FALSE)

drill_query(con, "SELECT * FROM cp.`employee.json`")
#> # A tibble: 1,155 × 20
#>               fqn      filename filepath suffix employee_id         full_name first_name last_name position_id
#> *           <chr>         <chr>    <chr>  <chr>       <chr>             <chr>      <chr>     <chr>       <chr>
#> 1  /employee.json employee.json        /   json           1      Sheri Nowmer      Sheri    Nowmer           1
#> 2  /employee.json employee.json        /   json           2   Derrick Whelply    Derrick   Whelply           2
#> 3  /employee.json employee.json        /   json           4    Michael Spence    Michael    Spence           2
#> 4  /employee.json employee.json        /   json           5    Maya Gutierrez       Maya Gutierrez           2
#> 5  /employee.json employee.json        /   json           6   Roberta Damstra    Roberta   Damstra           3
#> 6  /employee.json employee.json        /   json           7  Rebecca Kanagaki    Rebecca  Kanagaki           4
#> 7  /employee.json employee.json        /   json           8       Kim Brunner        Kim   Brunner          11
#> 8  /employee.json employee.json        /   json           9   Brenda Blumberg     Brenda  Blumberg          11
#> 9  /employee.json employee.json        /   json          10      Darren Stanz     Darren     Stanz           5
#> 10 /employee.json employee.json        /   json          11 Jonathan Murraiin   Jonathan  Murraiin          11
#> # ... with 1,145 more rows, and 11 more variables: position_title <chr>, store_id <chr>, department_id <chr>,
#> #   birth_date <chr>, hire_date <chr>, salary <chr>, supervisor_id <chr>, education_level <chr>, marital_status <chr>,
#> #   gender <chr>, management_role <chr>

# but it can work via JDBC function calls, too
dbGetQuery(con, "SELECT * FROM cp.`employee.json`") %>% 
  tibble::as_tibble()
#> # A tibble: 1,155 × 20
#>               fqn      filename filepath suffix employee_id         full_name first_name last_name position_id
#> *           <chr>         <chr>    <chr>  <chr>       <chr>             <chr>      <chr>     <chr>       <chr>
#> 1  /employee.json employee.json        /   json           1      Sheri Nowmer      Sheri    Nowmer           1
#> 2  /employee.json employee.json        /   json           2   Derrick Whelply    Derrick   Whelply           2
#> 3  /employee.json employee.json        /   json           4    Michael Spence    Michael    Spence           2
#> 4  /employee.json employee.json        /   json           5    Maya Gutierrez       Maya Gutierrez           2
#> 5  /employee.json employee.json        /   json           6   Roberta Damstra    Roberta   Damstra           3
#> 6  /employee.json employee.json        /   json           7  Rebecca Kanagaki    Rebecca  Kanagaki           4
#> 7  /employee.json employee.json        /   json           8       Kim Brunner        Kim   Brunner          11
#> 8  /employee.json employee.json        /   json           9   Brenda Blumberg     Brenda  Blumberg          11
#> 9  /employee.json employee.json        /   json          10      Darren Stanz     Darren     Stanz           5
#> 10 /employee.json employee.json        /   json          11 Jonathan Murraiin   Jonathan  Murraiin          11
#> # ... with 1,145 more rows, and 11 more variables: position_title <chr>, store_id <chr>, department_id <chr>,
#> #   birth_date <chr>, hire_date <chr>, salary <chr>, supervisor_id <chr>, education_level <chr>, marital_status <chr>,
#> #   gender <chr>, management_role <chr>
…
